{
  "shell_port": 42059,
  "iopub_port": 47165,
  "stdin_port": 59635,
  "control_port": 48969,
  "hb_port": 58109,
  "ip": "127.0.0.1",
  "key": "b2934a62-536b322ac34dad63267d088a",
  "transport": "tcp",
  "signature_scheme": "hmac-sha256",
  "kernel_name": ""
}